{
    "/js/app.js": "/js/app.js?id=1a06df47ff5e7c6cc149",
    "/css/app.css": "/css/app.css?id=95b41a4441ff99bec5f3",
    "/css/app-rtl.css": "/css/app-rtl.css?id=95b41a4441ff99bec5f3",
    "/js/app.js.map": "/js/app.js.map?id=6c1124ad62929184e486",
    "/js/manifest.js": "/js/manifest.js?id=89712bc6d8c588400cae",
    "/js/manifest.js.map": "/js/manifest.js.map?id=2d58fed8b8c4a064950d",
    "/js/vendor.js": "/js/vendor.js?id=f72cb77b89946122fe54",
    "/js/vendor.js.map": "/js/vendor.js.map?id=89b4c9d82f9526b79a85",
    "/js/sweetalert.min.js": "/js/sweetalert.min.js?id=abedaaba10307a01ba0d"
}
